solid OpenSCAD_Model
  facet normal 0 0 0
    outer loop
      vertex -30.75 -36.1651 -6
      vertex -31.7113 -34.5 6
      vertex -31.7113 -34.5 -6
    endloop
  endfacet
  facet normal 0 0 0
    outer loop
      vertex -31.7113 -34.5 6
      vertex -30.75 -36.1651 -6
      vertex -30.75 -36.1651 6
    endloop
  endfacet
  facet normal 0 0 0
    outer loop
      vertex 28.25 -31.8349 6
      vertex 30 -33.125 6
      vertex 30 -31.8349 6
    endloop
  endfacet
  facet normal 0 0 0
    outer loop
      vertex 30 -33.125 6
      vertex 28.25 -31.8349 6
      vertex 28.25 -33.125 6
    endloop
  endfacet
  facet normal 0 0 0
    outer loop
      vertex 41 1.5 6
      vertex 33 -1.5 6
      vertex 41 -1.5 6
    endloop
  endfacet
  facet normal 0 0 0
    outer loop
      vertex 30 -31.8349 6
      vertex 33 -34.5 6
      vertex 33 -1.5 6
    endloop
  endfacet
  facet normal 0 0 0
    outer loop
      vertex 33 -34.5 6
      vertex 30 -31.8349 6
      vertex 31.7113 -34.5 6
    endloop
  endfacet
  facet normal 0 0 0
    outer loop
      vertex 30 -34.866 6
      vertex 31.7113 -34.5 6
      vertex 30.5 -34 6
    endloop
  endfacet
  facet normal 0 0 0
    outer loop
      vertex 30 -31.8349 6
      vertex 33 -1.5 6
      vertex 30 -1.5 6
    endloop
  endfacet
  facet normal 0 0 0
    outer loop
      vertex 27.0032 1.5 6
      vertex 33 -1.5 6
      vertex 41 1.5 6
    endloop
  endfacet
  facet normal 0 0 0
    outer loop
      vertex 33 -1.5 6
      vertex 27.0032 1.5 6
      vertex 30 -1.5 6
    endloop
  endfacet
  facet normal 0 0 0
    outer loop
      vertex 30 -1.5 6
      vertex 27.0032 1.5 6
      vertex 27.0032 -1.5 6
    endloop
  endfacet
  facet normal 0 0 0
    outer loop
      vertex 31.7113 -34.5 6
      vertex 30 -34.866 6
      vertex 30 -34.875 6
    endloop
  endfacet
  facet normal 0 0 0
    outer loop
      vertex 31.7113 -34.5 6
      vertex 30 -34.875 6
      vertex 30.75 -36.1651 6
    endloop
  endfacet
  facet normal 0 0 0
    outer loop
      vertex 28.25 -36.1651 6
      vertex 30 -34.875 6
      vertex 28.25 -34.875 6
    endloop
  endfacet
  facet normal 0 0 0
    outer loop
      vertex 30 -34.875 6
      vertex 28.25 -36.1651 6
      vertex 30.75 -36.1651 6
    endloop
  endfacet
  facet normal 0 0 0
    outer loop
      vertex 30 -33.125 6
      vertex 31.7113 -34.5 6
      vertex 30 -31.8349 6
    endloop
  endfacet
  facet normal 0 0 0
    outer loop
      vertex 31.7113 -34.5 6
      vertex 30 -33.125 6
      vertex 30.5 -34 6
    endloop
  endfacet
  facet normal 0 0 0
    outer loop
      vertex 30.5 -34 6
      vertex 30 -33.125 6
      vertex 30 -33.134 6
    endloop
  endfacet
  facet normal 0 0 0
    outer loop
      vertex -31.7113 -34.5 6
      vertex -30 -34.866 6
      vertex -30.5 -34 6
    endloop
  endfacet
  facet normal 0 0 0
    outer loop
      vertex -30 -34.875 6
      vertex -28.25 -36.1651 6
      vertex -28.25 -34.875 6
    endloop
  endfacet
  facet normal 0 0 0
    outer loop
      vertex -30 -34.875 6
      vertex -30.75 -36.1651 6
      vertex -28.25 -36.1651 6
    endloop
  endfacet
  facet normal 0 0 0
    outer loop
      vertex -30 -34.866 6
      vertex -31.7113 -34.5 6
      vertex -30 -34.875 6
    endloop
  endfacet
  facet normal 0 0 0
    outer loop
      vertex -27.0032 1.5 6
      vertex -30 -1.5 6
      vertex -27.0032 -1.5 6
    endloop
  endfacet
  facet normal 0 0 0
    outer loop
      vertex -33 -1.5 6
      vertex -30 -31.8349 6
      vertex -30 -1.5 6
    endloop
  endfacet
  facet normal 0 0 0
    outer loop
      vertex -33 -34.5 6
      vertex -30 -31.8349 6
      vertex -33 -1.5 6
    endloop
  endfacet
  facet normal 0 0 0
    outer loop
      vertex -31.7113 -34.5 6
      vertex -30 -31.8349 6
      vertex -33 -34.5 6
    endloop
  endfacet
  facet normal 0 0 0
    outer loop
      vertex -30 -31.8349 6
      vertex -31.7113 -34.5 6
      vertex -30 -33.125 6
    endloop
  endfacet
  facet normal 0 0 0
    outer loop
      vertex -30 -34.875 6
      vertex -31.7113 -34.5 6
      vertex -30.75 -36.1651 6
    endloop
  endfacet
  facet normal 0 0 0
    outer loop
      vertex -30.5 -34 6
      vertex -30 -33.125 6
      vertex -31.7113 -34.5 6
    endloop
  endfacet
  facet normal 0 0 0
    outer loop
      vertex -27.0032 1.5 6
      vertex -33 -1.5 6
      vertex -30 -1.5 6
    endloop
  endfacet
  facet normal 0 0 0
    outer loop
      vertex -41 1.5 6
      vertex -33 -1.5 6
      vertex -27.0032 1.5 6
    endloop
  endfacet
  facet normal 0 0 0
    outer loop
      vertex -33 -1.5 6
      vertex -41 1.5 6
      vertex -41 -1.5 6
    endloop
  endfacet
  facet normal 0 0 0
    outer loop
      vertex -30 -31.8349 6
      vertex -28.25 -33.125 6
      vertex -28.25 -31.8349 6
    endloop
  endfacet
  facet normal 0 0 0
    outer loop
      vertex -28.25 -33.125 6
      vertex -30 -31.8349 6
      vertex -30 -33.125 6
    endloop
  endfacet
  facet normal 0 0 0
    outer loop
      vertex -30 -33.125 6
      vertex -30.5 -34 6
      vertex -30 -33.134 6
    endloop
  endfacet
  facet normal 0 0 0
    outer loop
      vertex -28.25 -31.8349 -6
      vertex -30 -31.8349 6
      vertex -28.25 -31.8349 6
    endloop
  endfacet
  facet normal 0 0 0
    outer loop
      vertex -30 -31.8349 6
      vertex -28.25 -31.8349 -6
      vertex -30 -31.8349 -6
    endloop
  endfacet
  facet normal 0 0 0
    outer loop
      vertex -30.75 -36.1651 -6
      vertex -28.25 -36.1651 6
      vertex -30.75 -36.1651 6
    endloop
  endfacet
  facet normal 0 0 0
    outer loop
      vertex -28.25 -36.1651 6
      vertex -30.75 -36.1651 -6
      vertex -28.25 -36.1651 -6
    endloop
  endfacet
  facet normal 0 0 0
    outer loop
      vertex -28.25 -36.1651 -6
      vertex -30 -34.875 -6
      vertex -28.25 -34.875 -6
    endloop
  endfacet
  facet normal 0 0 0
    outer loop
      vertex -31.7113 -34.5 -6
      vertex -30 -34.866 -6
      vertex -30 -34.875 -6
    endloop
  endfacet
  facet normal 0 0 0
    outer loop
      vertex -31.7113 -34.5 -6
      vertex -30 -34.875 -6
      vertex -30.75 -36.1651 -6
    endloop
  endfacet
  facet normal 0 0 0
    outer loop
      vertex -30.75 -36.1651 -6
      vertex -30 -34.875 -6
      vertex -28.25 -36.1651 -6
    endloop
  endfacet
  facet normal 0 0 0
    outer loop
      vertex -30.5 -34 -6
      vertex -30 -33.125 -6
      vertex -30 -33.134 -6
    endloop
  endfacet
  facet normal 0 0 0
    outer loop
      vertex -30 -33.125 -6
      vertex -31.7113 -34.5 -6
      vertex -30 -31.8349 -6
    endloop
  endfacet
  facet normal 0 0 0
    outer loop
      vertex -30 -33.125 -6
      vertex -30.5 -34 -6
      vertex -31.7113 -34.5 -6
    endloop
  endfacet
  facet normal 0 0 0
    outer loop
      vertex -30 -33.125 -6
      vertex -28.25 -31.8349 -6
      vertex -28.25 -33.125 -6
    endloop
  endfacet
  facet normal 0 0 0
    outer loop
      vertex -28.25 -31.8349 -6
      vertex -30 -33.125 -6
      vertex -30 -31.8349 -6
    endloop
  endfacet
  facet normal 0 0 0
    outer loop
      vertex 30 -31.8349 -6
      vertex 33 -34.5 -6
      vertex 31.7113 -34.5 -6
    endloop
  endfacet
  facet normal 0 0 0
    outer loop
      vertex 33 -1.5 -6
      vertex 41 1.5 -6
      vertex 41 -1.5 -6
    endloop
  endfacet
  facet normal 0 0 0
    outer loop
      vertex 30 -34.875 -6
      vertex 31.7113 -34.5 -6
      vertex 30.75 -36.1651 -6
    endloop
  endfacet
  facet normal 0 0 0
    outer loop
      vertex 30 -33.125 -6
      vertex 31.7113 -34.5 -6
      vertex 30.5 -34 -6
    endloop
  endfacet
  facet normal 0 0 0
    outer loop
      vertex 30 -33.125 -6
      vertex 30.5 -34 -6
      vertex 30 -33.134 -6
    endloop
  endfacet
  facet normal 0 0 0
    outer loop
      vertex 31.7113 -34.5 -6
      vertex 30 -33.125 -6
      vertex 30 -31.8349 -6
    endloop
  endfacet
  facet normal 0 0 0
    outer loop
      vertex 33 -34.5 -6
      vertex 30 -31.8349 -6
      vertex 30 -10 -6
    endloop
  endfacet
  facet normal 0 0 0
    outer loop
      vertex 33 -34.5 -6
      vertex 30 -10 -6
      vertex 33 -1.5 -6
    endloop
  endfacet
  facet normal 0 0 0
    outer loop
      vertex -30 -10 -6
      vertex 33 -1.5 -6
      vertex 30 -10 -6
    endloop
  endfacet
  facet normal 0 0 0
    outer loop
      vertex -33 -1.5 -6
      vertex 33 -1.5 -6
      vertex -30 -10 -6
    endloop
  endfacet
  facet normal 0 0 0
    outer loop
      vertex -30 -34.866 -6
      vertex -31.7113 -34.5 -6
      vertex -30.5 -34 -6
    endloop
  endfacet
  facet normal 0 0 0
    outer loop
      vertex -30 -31.8349 -6
      vertex -31.7113 -34.5 -6
      vertex -33 -34.5 -6
    endloop
  endfacet
  facet normal 0 0 0
    outer loop
      vertex -30 -31.8349 -6
      vertex -33 -34.5 -6
      vertex -30 -10 -6
    endloop
  endfacet
  facet normal 0 0 0
    outer loop
      vertex -33 -1.5 -6
      vertex -30 -10 -6
      vertex -33 -34.5 -6
    endloop
  endfacet
  facet normal 0 0 0
    outer loop
      vertex 33 -1.5 -6
      vertex -33 -1.5 -6
      vertex 41 1.5 -6
    endloop
  endfacet
  facet normal 0 0 0
    outer loop
      vertex -41 1.5 -6
      vertex -33 -1.5 -6
      vertex -41 -1.5 -6
    endloop
  endfacet
  facet normal 0 0 0
    outer loop
      vertex -33 -1.5 -6
      vertex -41 1.5 -6
      vertex 41 1.5 -6
    endloop
  endfacet
  facet normal 0 0 0
    outer loop
      vertex 28.25 -33.125 -6
      vertex 30 -31.8349 -6
      vertex 30 -33.125 -6
    endloop
  endfacet
  facet normal 0 0 0
    outer loop
      vertex 30 -31.8349 -6
      vertex 28.25 -33.125 -6
      vertex 28.25 -31.8349 -6
    endloop
  endfacet
  facet normal 0 0 0
    outer loop
      vertex 30 -34.866 -6
      vertex 31.7113 -34.5 -6
      vertex 30 -34.875 -6
    endloop
  endfacet
  facet normal 0 0 0
    outer loop
      vertex 28.25 -36.1651 -6
      vertex 30 -34.875 -6
      vertex 30.75 -36.1651 -6
    endloop
  endfacet
  facet normal 0 0 0
    outer loop
      vertex 30 -34.875 -6
      vertex 28.25 -36.1651 -6
      vertex 28.25 -34.875 -6
    endloop
  endfacet
  facet normal 0 0 0
    outer loop
      vertex 31.7113 -34.5 -6
      vertex 30 -34.866 -6
      vertex 30.5 -34 -6
    endloop
  endfacet
  facet normal 0 0 0
    outer loop
      vertex -33 -1.5 -6
      vertex -33 -5 -1.11603
      vertex -33 -1.5 -1.11603
    endloop
  endfacet
  facet normal 0 0 0
    outer loop
      vertex -33 -5 -1.11603
      vertex -33 -34.5 -6
      vertex -33 -5 0.616026
    endloop
  endfacet
  facet normal 0 0 0
    outer loop
      vertex -33 -34.5 -6
      vertex -33 -5 -1.11603
      vertex -33 -1.5 -6
    endloop
  endfacet
  facet normal 0 0 0
    outer loop
      vertex -33 -5 0.616026
      vertex -33 -1.5 6
      vertex -33 -1.5 0.616026
    endloop
  endfacet
  facet normal 0 0 0
    outer loop
      vertex -33 -34.5 6
      vertex -33 -5 0.616026
      vertex -33 -34.5 -6
    endloop
  endfacet
  facet normal 0 0 0
    outer loop
      vertex -33 -5 0.616026
      vertex -33 -34.5 6
      vertex -33 -1.5 6
    endloop
  endfacet
  facet normal 0 0 0
    outer loop
      vertex -30 -1.5 6
      vertex -30 -10 -4.5
      vertex -30 -1.5 -4.5
    endloop
  endfacet
  facet normal 0 0 0
    outer loop
      vertex -30 -31.8349 6
      vertex -30 -10 -4.5
      vertex -30 -1.5 6
    endloop
  endfacet
  facet normal 0 0 0
    outer loop
      vertex -30 -31.8349 -6
      vertex -30 -10 -4.5
      vertex -30 -31.8349 6
    endloop
  endfacet
  facet normal 0 0 0
    outer loop
      vertex -30 -10 -4.5
      vertex -30 -31.8349 -6
      vertex -30 -10 -6
    endloop
  endfacet
  facet normal 0 0 0
    outer loop
      vertex -33 -34.5 -6
      vertex -31.7113 -34.5 6
      vertex -33 -34.5 6
    endloop
  endfacet
  facet normal 0 0 0
    outer loop
      vertex -31.7113 -34.5 6
      vertex -33 -34.5 -6
      vertex -31.7113 -34.5 -6
    endloop
  endfacet
  facet normal 0 0 0
    outer loop
      vertex 35.2478 1.5 1.29547
      vertex 27.0032 1.5 6
      vertex 41 1.5 6
    endloop
  endfacet
  facet normal 0 0 0
    outer loop
      vertex 34.7948 1.5 1.06465
      vertex 27.0032 1.5 6
      vertex 35.2478 1.5 1.29547
    endloop
  endfacet
  facet normal 0 0 0
    outer loop
      vertex 34.4353 1.5 0.705152
      vertex 27.0032 1.5 6
      vertex 34.7948 1.5 1.06465
    endloop
  endfacet
  facet normal 0 0 0
    outer loop
      vertex 34.2045 1.5 0.252153
      vertex 27.0032 1.5 6
      vertex 34.4353 1.5 0.705152
    endloop
  endfacet
  facet normal 0 0 0
    outer loop
      vertex 35.2478 1.5 1.29547
      vertex 41 1.5 6
      vertex 35.75 1.5 1.375
    endloop
  endfacet
  facet normal 0 0 0
    outer loop
      vertex 41 1.5 6
      vertex 36.2522 1.5 1.29547
      vertex 35.75 1.5 1.375
    endloop
  endfacet
  facet normal 0 0 0
    outer loop
      vertex 41 1.5 6
      vertex 36.7052 1.5 1.06465
      vertex 36.2522 1.5 1.29547
    endloop
  endfacet
  facet normal 0 0 0
    outer loop
      vertex 41 1.5 6
      vertex 37.0647 1.5 0.705152
      vertex 36.7052 1.5 1.06465
    endloop
  endfacet
  facet normal 0 0 0
    outer loop
      vertex 41 1.5 6
      vertex 37.2955 1.5 0.252153
      vertex 37.0647 1.5 0.705152
    endloop
  endfacet
  facet normal 0 0 0
    outer loop
      vertex 41 1.5 6
      vertex 37.375 1.5 -0.25
      vertex 37.2955 1.5 0.252153
    endloop
  endfacet
  facet normal 0 0 0
    outer loop
      vertex 41 1.5 -6
      vertex 37.375 1.5 -0.25
      vertex 41 1.5 6
    endloop
  endfacet
  facet normal 0 0 0
    outer loop
      vertex 37.375 1.5 -0.25
      vertex 41 1.5 -6
      vertex 37.2955 1.5 -0.752152
    endloop
  endfacet
  facet normal 0 0 0
    outer loop
      vertex 35.2478 1.5 -1.79547
      vertex 10.3528 1.5 -3.13703
      vertex 12.3607 1.5 -2.54226
    endloop
  endfacet
  facet normal 0 0 0
    outer loop
      vertex 35.2478 1.5 -1.79547
      vertex 41 1.5 -6
      vertex 10.3528 1.5 -3.13703
    endloop
  endfacet
  facet normal 0 0 0
    outer loop
      vertex 10.3528 1.5 -3.13703
      vertex 41 1.5 -6
      vertex 8.31647 1.5 -3.6259
    endloop
  endfacet
  facet normal 0 0 0
    outer loop
      vertex 8.31647 1.5 -3.6259
      vertex 41 1.5 -6
      vertex 6.25738 1.5 -4.00753
    endloop
  endfacet
  facet normal 0 0 0
    outer loop
      vertex 6.25738 1.5 -4.00753
      vertex 41 1.5 -6
      vertex 4.18114 1.5 -4.28088
    endloop
  endfacet
  facet normal 0 0 0
    outer loop
      vertex 2.09344 1.5 -4.44518
      vertex 41 1.5 -6
      vertex 0 1.5 -4.5
    endloop
  endfacet
  facet normal 0 0 0
    outer loop
      vertex 4.18114 1.5 -4.28088
      vertex 41 1.5 -6
      vertex 2.09344 1.5 -4.44518
    endloop
  endfacet
  facet normal 0 0 0
    outer loop
      vertex 36.2522 1.5 -1.79547
      vertex 41 1.5 -6
      vertex 35.75 1.5 -1.875
    endloop
  endfacet
  facet normal 0 0 0
    outer loop
      vertex 36.7052 1.5 -1.56465
      vertex 41 1.5 -6
      vertex 36.2522 1.5 -1.79547
    endloop
  endfacet
  facet normal 0 0 0
    outer loop
      vertex 37.0647 1.5 -1.20515
      vertex 41 1.5 -6
      vertex 36.7052 1.5 -1.56465
    endloop
  endfacet
  facet normal 0 0 0
    outer loop
      vertex 37.2955 1.5 -0.752152
      vertex 41 1.5 -6
      vertex 37.0647 1.5 -1.20515
    endloop
  endfacet
  facet normal 0 0 0
    outer loop
      vertex 27.0032 1.5 6
      vertex 34.2045 1.5 0.252153
      vertex 26.7652 1.5 5.77421
    endloop
  endfacet
  facet normal 0 0 0
    outer loop
      vertex 26.7652 1.5 5.77421
      vertex 34.2045 1.5 0.252153
      vertex 25.1728 1.5 4.41416
    endloop
  endfacet
  facet normal 0 0 0
    outer loop
      vertex 34.125 1.5 -0.25
      vertex 25.1728 1.5 4.41416
      vertex 34.2045 1.5 0.252153
    endloop
  endfacet
  facet normal 0 0 0
    outer loop
      vertex 25.1728 1.5 4.41416
      vertex 34.125 1.5 -0.25
      vertex 23.5114 1.5 3.13932
    endloop
  endfacet
  facet normal 0 0 0
    outer loop
      vertex 34.2045 1.5 -0.752152
      vertex 23.5114 1.5 3.13932
      vertex 34.125 1.5 -0.25
    endloop
  endfacet
  facet normal 0 0 0
    outer loop
      vertex 23.5114 1.5 3.13932
      vertex 34.2045 1.5 -0.752152
      vertex 21.7856 1.5 1.95318
    endloop
  endfacet
  facet normal 0 0 0
    outer loop
      vertex 34.4353 1.5 -1.20515
      vertex 21.7856 1.5 1.95318
      vertex 34.2045 1.5 -0.752152
    endloop
  endfacet
  facet normal 0 0 0
    outer loop
      vertex 21.7856 1.5 1.95318
      vertex 34.4353 1.5 -1.20515
      vertex 20 1.5 0.858984
    endloop
  endfacet
  facet normal 0 0 0
    outer loop
      vertex 34.7948 1.5 -1.56465
      vertex 20 1.5 0.858984
      vertex 34.4353 1.5 -1.20515
    endloop
  endfacet
  facet normal 0 0 0
    outer loop
      vertex 20 1.5 0.858984
      vertex 34.7948 1.5 -1.56465
      vertex 18.1596 1.5 -0.140261
    endloop
  endfacet
  facet normal 0 0 0
    outer loop
      vertex 18.1596 1.5 -0.140261
      vertex 34.7948 1.5 -1.56465
      vertex 16.2695 1.5 -1.04182
    endloop
  endfacet
  facet normal 0 0 0
    outer loop
      vertex 35.2478 1.5 -1.79547
      vertex 16.2695 1.5 -1.04182
      vertex 34.7948 1.5 -1.56465
    endloop
  endfacet
  facet normal 0 0 0
    outer loop
      vertex 35.2478 1.5 -1.79547
      vertex 14.3347 1.5 -1.84322
      vertex 16.2695 1.5 -1.04182
    endloop
  endfacet
  facet normal 0 0 0
    outer loop
      vertex 41 1.5 -6
      vertex 35.2478 1.5 -1.79547
      vertex 35.75 1.5 -1.875
    endloop
  endfacet
  facet normal 0 0 0
    outer loop
      vertex 35.2478 1.5 -1.79547
      vertex 12.3607 1.5 -2.54226
      vertex 14.3347 1.5 -1.84322
    endloop
  endfacet
  facet normal 0 0 0
    outer loop
      vertex -41 1.5 6
      vertex -35.2478 1.5 1.29547
      vertex -35.75 1.5 1.375
    endloop
  endfacet
  facet normal 0 0 0
    outer loop
      vertex -23.5114 1.5 3.13932
      vertex -34.7948 1.5 1.06465
      vertex -35.2478 1.5 1.29547
    endloop
  endfacet
  facet normal 0 0 0
    outer loop
      vertex -34.4353 1.5 -1.20515
      vertex -21.7856 1.5 1.95318
      vertex -20 1.5 0.858984
    endloop
  endfacet
  facet normal 0 0 0
    outer loop
      vertex -23.5114 1.5 3.13932
      vertex -34.4353 1.5 0.705152
      vertex -34.7948 1.5 1.06465
    endloop
  endfacet
  facet normal 0 0 0
    outer loop
      vertex -23.5114 1.5 3.13932
      vertex -34.2045 1.5 0.252153
      vertex -34.4353 1.5 0.705152
    endloop
  endfacet
  facet normal 0 0 0
    outer loop
      vertex -34.7948 1.5 -1.56465
      vertex -20 1.5 0.858984
      vertex -18.1596 1.5 -0.140261
    endloop
  endfacet
  facet normal 0 0 0
    outer loop
      vertex -23.5114 1.5 3.13932
      vertex -34.125 1.5 -0.25
      vertex -34.2045 1.5 0.252153
    endloop
  endfacet
  facet normal 0 0 0
    outer loop
      vertex -23.5114 1.5 3.13932
      vertex -34.2045 1.5 -0.752152
      vertex -34.125 1.5 -0.25
    endloop
  endfacet
  facet normal 0 0 0
    outer loop
      vertex -34.7948 1.5 -1.56465
      vertex -18.1596 1.5 -0.140261
      vertex -16.2695 1.5 -1.04182
    endloop
  endfacet
  facet normal 0 0 0
    outer loop
      vertex -21.7856 1.5 1.95318
      vertex -34.4353 1.5 -1.20515
      vertex -34.2045 1.5 -0.752152
    endloop
  endfacet
  facet normal 0 0 0
    outer loop
      vertex -20 1.5 0.858984
      vertex -34.7948 1.5 -1.56465
      vertex -34.4353 1.5 -1.20515
    endloop
  endfacet
  facet normal 0 0 0
    outer loop
      vertex -16.2695 1.5 -1.04182
      vertex -35.2478 1.5 -1.79547
      vertex -34.7948 1.5 -1.56465
    endloop
  endfacet
  facet normal 0 0 0
    outer loop
      vertex -41 1.5 -6
      vertex -16.2695 1.5 -1.04182
      vertex -14.3347 1.5 -1.84322
    endloop
  endfacet
  facet normal 0 0 0
    outer loop
      vertex -16.2695 1.5 -1.04182
      vertex -41 1.5 -6
      vertex -35.2478 1.5 -1.79547
    endloop
  endfacet
  facet normal 0 0 0
    outer loop
      vertex -41 1.5 -6
      vertex -14.3347 1.5 -1.84322
      vertex -12.3607 1.5 -2.54226
    endloop
  endfacet
  facet normal 0 0 0
    outer loop
      vertex -35.2478 1.5 1.29547
      vertex -27.0032 1.5 6
      vertex -26.7652 1.5 5.77421
    endloop
  endfacet
  facet normal 0 0 0
    outer loop
      vertex -35.2478 1.5 1.29547
      vertex -26.7652 1.5 5.77421
      vertex -25.1728 1.5 4.41416
    endloop
  endfacet
  facet normal 0 0 0
    outer loop
      vertex -35.2478 1.5 1.29547
      vertex -25.1728 1.5 4.41416
      vertex -23.5114 1.5 3.13932
    endloop
  endfacet
  facet normal 0 0 0
    outer loop
      vertex -34.2045 1.5 -0.752152
      vertex -23.5114 1.5 3.13932
      vertex -21.7856 1.5 1.95318
    endloop
  endfacet
  facet normal 0 0 0
    outer loop
      vertex -35.2478 1.5 1.29547
      vertex -41 1.5 6
      vertex -27.0032 1.5 6
    endloop
  endfacet
  facet normal 0 0 0
    outer loop
      vertex -36.2522 1.5 1.29547
      vertex -41 1.5 6
      vertex -35.75 1.5 1.375
    endloop
  endfacet
  facet normal 0 0 0
    outer loop
      vertex -36.7052 1.5 1.06465
      vertex -41 1.5 6
      vertex -36.2522 1.5 1.29547
    endloop
  endfacet
  facet normal 0 0 0
    outer loop
      vertex -37.0647 1.5 0.705152
      vertex -41 1.5 6
      vertex -36.7052 1.5 1.06465
    endloop
  endfacet
  facet normal 0 0 0
    outer loop
      vertex -37.2955 1.5 0.252153
      vertex -41 1.5 6
      vertex -37.0647 1.5 0.705152
    endloop
  endfacet
  facet normal 0 0 0
    outer loop
      vertex -37.375 1.5 -0.25
      vertex -41 1.5 6
      vertex -37.2955 1.5 0.252153
    endloop
  endfacet
  facet normal 0 0 0
    outer loop
      vertex -41 1.5 -6
      vertex -37.375 1.5 -0.25
      vertex -37.2955 1.5 -0.752152
    endloop
  endfacet
  facet normal 0 0 0
    outer loop
      vertex -41 1.5 -6
      vertex -37.2955 1.5 -0.752152
      vertex -37.0647 1.5 -1.20515
    endloop
  endfacet
  facet normal 0 0 0
    outer loop
      vertex -41 1.5 -6
      vertex -12.3607 1.5 -2.54226
      vertex -10.3528 1.5 -3.13703
    endloop
  endfacet
  facet normal 0 0 0
    outer loop
      vertex -41 1.5 -6
      vertex -10.3528 1.5 -3.13703
      vertex -8.31647 1.5 -3.6259
    endloop
  endfacet
  facet normal 0 0 0
    outer loop
      vertex -41 1.5 -6
      vertex -8.31647 1.5 -3.6259
      vertex -6.25738 1.5 -4.00753
    endloop
  endfacet
  facet normal 0 0 0
    outer loop
      vertex -41 1.5 -6
      vertex -6.25738 1.5 -4.00753
      vertex -4.18114 1.5 -4.28088
    endloop
  endfacet
  facet normal 0 0 0
    outer loop
      vertex -41 1.5 -6
      vertex -4.18114 1.5 -4.28088
      vertex -2.09344 1.5 -4.44518
    endloop
  endfacet
  facet normal 0 0 0
    outer loop
      vertex -41 1.5 -6
      vertex 0 1.5 -4.5
      vertex 41 1.5 -6
    endloop
  endfacet
  facet normal 0 0 0
    outer loop
      vertex -37.375 1.5 -0.25
      vertex -41 1.5 -6
      vertex -41 1.5 6
    endloop
  endfacet
  facet normal 0 0 0
    outer loop
      vertex -36.7052 1.5 -1.56465
      vertex -41 1.5 -6
      vertex -37.0647 1.5 -1.20515
    endloop
  endfacet
  facet normal 0 0 0
    outer loop
      vertex -36.2522 1.5 -1.79547
      vertex -41 1.5 -6
      vertex -36.7052 1.5 -1.56465
    endloop
  endfacet
  facet normal 0 0 0
    outer loop
      vertex -35.75 1.5 -1.875
      vertex -41 1.5 -6
      vertex -36.2522 1.5 -1.79547
    endloop
  endfacet
  facet normal 0 0 0
    outer loop
      vertex -35.2478 1.5 -1.79547
      vertex -41 1.5 -6
      vertex -35.75 1.5 -1.875
    endloop
  endfacet
  facet normal 0 0 0
    outer loop
      vertex 0 1.5 -4.5
      vertex -41 1.5 -6
      vertex -2.09344 1.5 -4.44518
    endloop
  endfacet
  facet normal 0 0 0
    outer loop
      vertex 30 -31.8349 -6
      vertex 28.25 -31.8349 6
      vertex 30 -31.8349 6
    endloop
  endfacet
  facet normal 0 0 0
    outer loop
      vertex 28.25 -31.8349 6
      vertex 30 -31.8349 -6
      vertex 28.25 -31.8349 -6
    endloop
  endfacet
  facet normal 0 0 0
    outer loop
      vertex 28.25 -36.1651 -6
      vertex 30.75 -36.1651 6
      vertex 28.25 -36.1651 6
    endloop
  endfacet
  facet normal 0 0 0
    outer loop
      vertex 30.75 -36.1651 6
      vertex 28.25 -36.1651 -6
      vertex 30.75 -36.1651 -6
    endloop
  endfacet
  facet normal 0 0 0
    outer loop
      vertex 30.75 -36.1651 6
      vertex 31.7113 -34.5 -6
      vertex 31.7113 -34.5 6
    endloop
  endfacet
  facet normal 0 0 0
    outer loop
      vertex 31.7113 -34.5 -6
      vertex 30.75 -36.1651 6
      vertex 30.75 -36.1651 -6
    endloop
  endfacet
  facet normal 0 0 0
    outer loop
      vertex 30 -10 -6
      vertex 30 -31.8349 -6
      vertex 30 -10 -4.5
    endloop
  endfacet
  facet normal 0 0 0
    outer loop
      vertex 30 -10 -4.5
      vertex 30 -1.5 6
      vertex 30 -1.5 -4.5
    endloop
  endfacet
  facet normal 0 0 0
    outer loop
      vertex 30 -31.8349 6
      vertex 30 -10 -4.5
      vertex 30 -31.8349 -6
    endloop
  endfacet
  facet normal 0 0 0
    outer loop
      vertex 30 -10 -4.5
      vertex 30 -31.8349 6
      vertex 30 -1.5 6
    endloop
  endfacet
  facet normal 0 0 0
    outer loop
      vertex 33 -1.5 6
      vertex 33 -5 0.616026
      vertex 33 -1.5 0.616026
    endloop
  endfacet
  facet normal 0 0 0
    outer loop
      vertex 33 -34.5 -6
      vertex 33 -5 0.616026
      vertex 33 -34.5 6
    endloop
  endfacet
  facet normal 0 0 0
    outer loop
      vertex 33 -34.5 6
      vertex 33 -5 0.616026
      vertex 33 -1.5 6
    endloop
  endfacet
  facet normal 0 0 0
    outer loop
      vertex 33 -5 -1.11603
      vertex 33 -1.5 -6
      vertex 33 -1.5 -1.11603
    endloop
  endfacet
  facet normal 0 0 0
    outer loop
      vertex 33 -5 0.616026
      vertex 33 -34.5 -6
      vertex 33 -5 -1.11603
    endloop
  endfacet
  facet normal 0 0 0
    outer loop
      vertex 33 -5 -1.11603
      vertex 33 -34.5 -6
      vertex 33 -1.5 -6
    endloop
  endfacet
  facet normal 0 0 0
    outer loop
      vertex 31.7113 -34.5 -6
      vertex 33 -34.5 6
      vertex 31.7113 -34.5 6
    endloop
  endfacet
  facet normal 0 0 0
    outer loop
      vertex 33 -34.5 6
      vertex 31.7113 -34.5 -6
      vertex 33 -34.5 -6
    endloop
  endfacet
  facet normal 0 0 0
    outer loop
      vertex -30 -34.866 6
      vertex -30.5 -34 -6
      vertex -30.5 -34 6
    endloop
  endfacet
  facet normal 0 0 0
    outer loop
      vertex -30.5 -34 -6
      vertex -30 -34.866 6
      vertex -30 -34.866 -6
    endloop
  endfacet
  facet normal 0 0 0
    outer loop
      vertex -30.5 -34 6
      vertex -30 -33.134 -6
      vertex -30 -33.134 6
    endloop
  endfacet
  facet normal 0 0 0
    outer loop
      vertex -30 -33.134 -6
      vertex -30.5 -34 6
      vertex -30.5 -34 -6
    endloop
  endfacet
  facet normal 0 0 0
    outer loop
      vertex 30.5 -34 -6
      vertex 30 -33.134 6
      vertex 30 -33.134 -6
    endloop
  endfacet
  facet normal 0 0 0
    outer loop
      vertex 30 -33.134 6
      vertex 30.5 -34 -6
      vertex 30.5 -34 6
    endloop
  endfacet
  facet normal 0 0 0
    outer loop
      vertex 30 -34.866 -6
      vertex 30.5 -34 6
      vertex 30.5 -34 -6
    endloop
  endfacet
  facet normal 0 0 0
    outer loop
      vertex 30.5 -34 6
      vertex 30 -34.866 -6
      vertex 30 -34.866 6
    endloop
  endfacet
  facet normal 0 0 0
    outer loop
      vertex -28.25 -33.125 6
      vertex -28.25 -31.8349 -6
      vertex -28.25 -31.8349 6
    endloop
  endfacet
  facet normal 0 0 0
    outer loop
      vertex -28.25 -31.8349 -6
      vertex -28.25 -33.125 6
      vertex -28.25 -33.125 -6
    endloop
  endfacet
  facet normal 0 0 0
    outer loop
      vertex -28.25 -36.1651 6
      vertex -28.25 -34.875 -6
      vertex -28.25 -34.875 6
    endloop
  endfacet
  facet normal 0 0 0
    outer loop
      vertex -28.25 -34.875 -6
      vertex -28.25 -36.1651 6
      vertex -28.25 -36.1651 -6
    endloop
  endfacet
  facet normal 0 0 0
    outer loop
      vertex 28.25 -36.1651 -6
      vertex 28.25 -34.875 6
      vertex 28.25 -34.875 -6
    endloop
  endfacet
  facet normal 0 0 0
    outer loop
      vertex 28.25 -34.875 6
      vertex 28.25 -36.1651 -6
      vertex 28.25 -36.1651 6
    endloop
  endfacet
  facet normal 0 0 0
    outer loop
      vertex 28.25 -33.125 -6
      vertex 28.25 -31.8349 6
      vertex 28.25 -31.8349 -6
    endloop
  endfacet
  facet normal 0 0 0
    outer loop
      vertex 28.25 -31.8349 6
      vertex 28.25 -33.125 -6
      vertex 28.25 -33.125 6
    endloop
  endfacet
  facet normal 0 0 0
    outer loop
      vertex -30 -34.875 6
      vertex -30 -34.866 -6
      vertex -30 -34.866 6
    endloop
  endfacet
  facet normal 0 0 0
    outer loop
      vertex -30 -34.866 -6
      vertex -30 -34.875 6
      vertex -30 -34.875 -6
    endloop
  endfacet
  facet normal 0 0 0
    outer loop
      vertex -30 -33.134 6
      vertex -30 -33.125 -6
      vertex -30 -33.125 6
    endloop
  endfacet
  facet normal 0 0 0
    outer loop
      vertex -30 -33.125 -6
      vertex -30 -33.134 6
      vertex -30 -33.134 -6
    endloop
  endfacet
  facet normal 0 0 0
    outer loop
      vertex 30 -33.134 -6
      vertex 30 -33.125 6
      vertex 30 -33.125 -6
    endloop
  endfacet
  facet normal 0 0 0
    outer loop
      vertex 30 -33.125 6
      vertex 30 -33.134 -6
      vertex 30 -33.134 6
    endloop
  endfacet
  facet normal 0 0 0
    outer loop
      vertex 30 -34.875 -6
      vertex 30 -34.866 6
      vertex 30 -34.866 -6
    endloop
  endfacet
  facet normal 0 0 0
    outer loop
      vertex 30 -34.866 6
      vertex 30 -34.875 -6
      vertex 30 -34.875 6
    endloop
  endfacet
  facet normal 0 0 0
    outer loop
      vertex -28.25 -34.875 -6
      vertex -30 -34.875 6
      vertex -28.25 -34.875 6
    endloop
  endfacet
  facet normal 0 0 0
    outer loop
      vertex -30 -34.875 6
      vertex -28.25 -34.875 -6
      vertex -30 -34.875 -6
    endloop
  endfacet
  facet normal 0 0 0
    outer loop
      vertex 30 -34.875 -6
      vertex 28.25 -34.875 6
      vertex 30 -34.875 6
    endloop
  endfacet
  facet normal 0 0 0
    outer loop
      vertex 28.25 -34.875 6
      vertex 30 -34.875 -6
      vertex 28.25 -34.875 -6
    endloop
  endfacet
  facet normal 0 0 0
    outer loop
      vertex -30 -33.125 -6
      vertex -28.25 -33.125 6
      vertex -30 -33.125 6
    endloop
  endfacet
  facet normal 0 0 0
    outer loop
      vertex -28.25 -33.125 6
      vertex -30 -33.125 -6
      vertex -28.25 -33.125 -6
    endloop
  endfacet
  facet normal 0 0 0
    outer loop
      vertex 28.25 -33.125 -6
      vertex 30 -33.125 6
      vertex 28.25 -33.125 6
    endloop
  endfacet
  facet normal 0 0 0
    outer loop
      vertex 30 -33.125 6
      vertex 28.25 -33.125 -6
      vertex 30 -33.125 -6
    endloop
  endfacet
  facet normal 0 0 0
    outer loop
      vertex -41 -1.5 -6
      vertex -41 1.5 6
      vertex -41 1.5 -6
    endloop
  endfacet
  facet normal 0 0 0
    outer loop
      vertex -41 1.5 6
      vertex -41 -1.5 -6
      vertex -41 -1.5 6
    endloop
  endfacet
  facet normal 0 0 0
    outer loop
      vertex 41 -1.5 6
      vertex 41 1.5 -6
      vertex 41 1.5 6
    endloop
  endfacet
  facet normal 0 0 0
    outer loop
      vertex 41 1.5 -6
      vertex 41 -1.5 6
      vertex 41 -1.5 -6
    endloop
  endfacet
  facet normal 0 0 0
    outer loop
      vertex -41 -1.5 6
      vertex -37.375 -1.5 2.56458
      vertex -33 -1.5 6
    endloop
  endfacet
  facet normal 0 0 0
    outer loop
      vertex -41 -1.5 6
      vertex -39 -1.5 -0.25
      vertex -37.375 -1.5 2.56458
    endloop
  endfacet
  facet normal 0 0 0
    outer loop
      vertex -33 -1.5 -6
      vertex -37.375 -1.5 -3.06458
      vertex -41 -1.5 -6
    endloop
  endfacet
  facet normal 0 0 0
    outer loop
      vertex -39 -1.5 -0.25
      vertex -41 -1.5 -6
      vertex -37.375 -1.5 -3.06458
    endloop
  endfacet
  facet normal 0 0 0
    outer loop
      vertex -41 -1.5 -6
      vertex -39 -1.5 -0.25
      vertex -41 -1.5 6
    endloop
  endfacet
  facet normal 0 0 0
    outer loop
      vertex -34.125 -1.5 2.56458
      vertex -33 -1.5 6
      vertex -37.375 -1.5 2.56458
    endloop
  endfacet
  facet normal 0 0 0
    outer loop
      vertex -33 -1.5 6
      vertex -34.125 -1.5 2.56458
      vertex -33 -1.5 0.616026
    endloop
  endfacet
  facet normal 0 0 0
    outer loop
      vertex -34.125 -1.5 -3.06458
      vertex -33 -1.5 -6
      vertex -33 -1.5 -1.11603
    endloop
  endfacet
  facet normal 0 0 0
    outer loop
      vertex -37.375 -1.5 -3.06458
      vertex -33 -1.5 -6
      vertex -34.125 -1.5 -3.06458
    endloop
  endfacet
  facet normal 0 0 0
    outer loop
      vertex 34.125 -1.5 -3.06458
      vertex 33 -1.5 -6
      vertex 37.375 -1.5 -3.06458
    endloop
  endfacet
  facet normal 0 0 0
    outer loop
      vertex 33 -1.5 -6
      vertex 34.125 -1.5 -3.06458
      vertex 33 -1.5 -1.11603
    endloop
  endfacet
  facet normal 0 0 0
    outer loop
      vertex 37.375 -1.5 2.56458
      vertex 33 -1.5 6
      vertex 34.125 -1.5 2.56458
    endloop
  endfacet
  facet normal 0 0 0
    outer loop
      vertex 34.125 -1.5 2.56458
      vertex 33 -1.5 6
      vertex 33 -1.5 0.616026
    endloop
  endfacet
  facet normal 0 0 0
    outer loop
      vertex 33 -1.5 6
      vertex 37.375 -1.5 2.56458
      vertex 41 -1.5 6
    endloop
  endfacet
  facet normal 0 0 0
    outer loop
      vertex 39 -1.5 -0.25
      vertex 41 -1.5 6
      vertex 37.375 -1.5 2.56458
    endloop
  endfacet
  facet normal 0 0 0
    outer loop
      vertex 39 -1.5 -0.25
      vertex 41 -1.5 -6
      vertex 41 -1.5 6
    endloop
  endfacet
  facet normal 0 0 0
    outer loop
      vertex 37.375 -1.5 -3.06458
      vertex 41 -1.5 -6
      vertex 39 -1.5 -0.25
    endloop
  endfacet
  facet normal 0 0 0
    outer loop
      vertex 41 -1.5 -6
      vertex 37.375 -1.5 -3.06458
      vertex 33 -1.5 -6
    endloop
  endfacet
  facet normal 0 0 0
    outer loop
      vertex -30 -1.5 6
      vertex -26.7652 -1.5 5.77421
      vertex -27.0032 -1.5 6
    endloop
  endfacet
  facet normal 0 0 0
    outer loop
      vertex -30 -1.5 6
      vertex -25.1728 -1.5 4.41416
      vertex -26.7652 -1.5 5.77421
    endloop
  endfacet
  facet normal 0 0 0
    outer loop
      vertex -30 -1.5 -4.5
      vertex -25.1728 -1.5 4.41416
      vertex -30 -1.5 6
    endloop
  endfacet
  facet normal 0 0 0
    outer loop
      vertex -25.1728 -1.5 4.41416
      vertex -30 -1.5 -4.5
      vertex -23.5114 -1.5 3.13932
    endloop
  endfacet
  facet normal 0 0 0
    outer loop
      vertex -23.5114 -1.5 3.13932
      vertex -30 -1.5 -4.5
      vertex -21.7856 -1.5 1.95318
    endloop
  endfacet
  facet normal 0 0 0
    outer loop
      vertex -21.7856 -1.5 1.95318
      vertex -30 -1.5 -4.5
      vertex -20 -1.5 0.858984
    endloop
  endfacet
  facet normal 0 0 0
    outer loop
      vertex -20 -1.5 0.858984
      vertex -30 -1.5 -4.5
      vertex -18.1596 -1.5 -0.140261
    endloop
  endfacet
  facet normal 0 0 0
    outer loop
      vertex -30 -1.5 -4.5
      vertex -16.2695 -1.5 -1.04182
      vertex -18.1596 -1.5 -0.140261
    endloop
  endfacet
  facet normal 0 0 0
    outer loop
      vertex -30 -1.5 -4.5
      vertex -14.3347 -1.5 -1.84322
      vertex -16.2695 -1.5 -1.04182
    endloop
  endfacet
  facet normal 0 0 0
    outer loop
      vertex -30 -1.5 -4.5
      vertex -12.3607 -1.5 -2.54226
      vertex -14.3347 -1.5 -1.84322
    endloop
  endfacet
  facet normal 0 0 0
    outer loop
      vertex -30 -1.5 -4.5
      vertex -10.3528 -1.5 -3.13703
      vertex -12.3607 -1.5 -2.54226
    endloop
  endfacet
  facet normal 0 0 0
    outer loop
      vertex -30 -1.5 -4.5
      vertex -8.31647 -1.5 -3.6259
      vertex -10.3528 -1.5 -3.13703
    endloop
  endfacet
  facet normal 0 0 0
    outer loop
      vertex -30 -1.5 -4.5
      vertex -6.25738 -1.5 -4.00753
      vertex -8.31647 -1.5 -3.6259
    endloop
  endfacet
  facet normal 0 0 0
    outer loop
      vertex -30 -1.5 -4.5
      vertex -4.18114 -1.5 -4.28088
      vertex -6.25738 -1.5 -4.00753
    endloop
  endfacet
  facet normal 0 0 0
    outer loop
      vertex -30 -1.5 -4.5
      vertex -2.09344 -1.5 -4.44518
      vertex -4.18114 -1.5 -4.28088
    endloop
  endfacet
  facet normal 0 0 0
    outer loop
      vertex -2.09344 -1.5 -4.44518
      vertex -30 -1.5 -4.5
      vertex -1.27192e-14 -1.5 -4.5
    endloop
  endfacet
  facet normal 0 0 0
    outer loop
      vertex 26.7652 -1.5 5.77421
      vertex 30 -1.5 6
      vertex 27.0032 -1.5 6
    endloop
  endfacet
  facet normal 0 0 0
    outer loop
      vertex 25.1728 -1.5 4.41416
      vertex 30 -1.5 6
      vertex 26.7652 -1.5 5.77421
    endloop
  endfacet
  facet normal 0 0 0
    outer loop
      vertex 30 -1.5 -4.5
      vertex 25.1728 -1.5 4.41416
      vertex 23.5114 -1.5 3.13932
    endloop
  endfacet
  facet normal 0 0 0
    outer loop
      vertex 30 -1.5 -4.5
      vertex 23.5114 -1.5 3.13932
      vertex 21.7856 -1.5 1.95318
    endloop
  endfacet
  facet normal 0 0 0
    outer loop
      vertex 30 -1.5 -4.5
      vertex 21.7856 -1.5 1.95318
      vertex 20 -1.5 0.858984
    endloop
  endfacet
  facet normal 0 0 0
    outer loop
      vertex 30 -1.5 -4.5
      vertex 20 -1.5 0.858984
      vertex 18.1596 -1.5 -0.140261
    endloop
  endfacet
  facet normal 0 0 0
    outer loop
      vertex 25.1728 -1.5 4.41416
      vertex 30 -1.5 -4.5
      vertex 30 -1.5 6
    endloop
  endfacet
  facet normal 0 0 0
    outer loop
      vertex 16.2695 -1.5 -1.04182
      vertex 30 -1.5 -4.5
      vertex 18.1596 -1.5 -0.140261
    endloop
  endfacet
  facet normal 0 0 0
    outer loop
      vertex 14.3347 -1.5 -1.84322
      vertex 30 -1.5 -4.5
      vertex 16.2695 -1.5 -1.04182
    endloop
  endfacet
  facet normal 0 0 0
    outer loop
      vertex 12.3607 -1.5 -2.54226
      vertex 30 -1.5 -4.5
      vertex 14.3347 -1.5 -1.84322
    endloop
  endfacet
  facet normal 0 0 0
    outer loop
      vertex 10.3528 -1.5 -3.13703
      vertex 30 -1.5 -4.5
      vertex 12.3607 -1.5 -2.54226
    endloop
  endfacet
  facet normal 0 0 0
    outer loop
      vertex 8.31647 -1.5 -3.6259
      vertex 30 -1.5 -4.5
      vertex 10.3528 -1.5 -3.13703
    endloop
  endfacet
  facet normal 0 0 0
    outer loop
      vertex 6.25738 -1.5 -4.00753
      vertex 30 -1.5 -4.5
      vertex 8.31647 -1.5 -3.6259
    endloop
  endfacet
  facet normal 0 0 0
    outer loop
      vertex 4.18114 -1.5 -4.28088
      vertex 30 -1.5 -4.5
      vertex 6.25738 -1.5 -4.00753
    endloop
  endfacet
  facet normal 0 0 0
    outer loop
      vertex 2.09344 -1.5 -4.44518
      vertex 30 -1.5 -4.5
      vertex 4.18114 -1.5 -4.28088
    endloop
  endfacet
  facet normal 0 0 0
    outer loop
      vertex 30 -1.5 -4.5
      vertex 2.09344 -1.5 -4.44518
      vertex 1.27192e-14 -1.5 -4.5
    endloop
  endfacet
  facet normal 0 0 0
    outer loop
      vertex 0 -3 -4.5
      vertex 30 -1.5 -4.5
      vertex 1.27192e-14 -1.5 -4.5
    endloop
  endfacet
  facet normal 0 0 0
    outer loop
      vertex 30 -1.5 -4.5
      vertex 0 -3 -4.5
      vertex 30 -10 -4.5
    endloop
  endfacet
  facet normal 0 0 0
    outer loop
      vertex -30 -1.5 -4.5
      vertex 0 -3 -4.5
      vertex -1.27192e-14 -1.5 -4.5
    endloop
  endfacet
  facet normal 0 0 0
    outer loop
      vertex -30 -10 -4.5
      vertex 0 -3 -4.5
      vertex -30 -1.5 -4.5
    endloop
  endfacet
  facet normal 0 0 0
    outer loop
      vertex 0 -3 -4.5
      vertex -30 -10 -4.5
      vertex 30 -10 -4.5
    endloop
  endfacet
  facet normal 0 0 0
    outer loop
      vertex -30 -10 -6
      vertex 30 -10 -4.5
      vertex -30 -10 -4.5
    endloop
  endfacet
  facet normal 0 0 0
    outer loop
      vertex 30 -10 -4.5
      vertex -30 -10 -6
      vertex 30 -10 -6
    endloop
  endfacet
  facet normal 0 0 0
    outer loop
      vertex -34.125 -1 -0.25
      vertex -34.2045 1.5 0.252153
      vertex -34.125 1.5 -0.25
    endloop
  endfacet
  facet normal 0 0 0
    outer loop
      vertex -34.2045 1.5 0.252153
      vertex -34.125 -1 -0.25
      vertex -34.2045 -1 0.252153
    endloop
  endfacet
  facet normal 0 0 0
    outer loop
      vertex -37.2955 -1 0.252153
      vertex -37.375 1.5 -0.25
      vertex -37.2955 1.5 0.252153
    endloop
  endfacet
  facet normal 0 0 0
    outer loop
      vertex -37.375 1.5 -0.25
      vertex -37.2955 -1 0.252153
      vertex -37.375 -1 -0.25
    endloop
  endfacet
  facet normal 0 0 0
    outer loop
      vertex -36.2522 -1 1.29547
      vertex -35.75 1.5 1.375
      vertex -35.75 -1 1.375
    endloop
  endfacet
  facet normal 0 0 0
    outer loop
      vertex -35.75 1.5 1.375
      vertex -36.2522 -1 1.29547
      vertex -36.2522 1.5 1.29547
    endloop
  endfacet
  facet normal 0 0 0
    outer loop
      vertex -34.4353 -1 0.705152
      vertex -34.7948 1.5 1.06465
      vertex -34.4353 1.5 0.705152
    endloop
  endfacet
  facet normal 0 0 0
    outer loop
      vertex -34.7948 1.5 1.06465
      vertex -34.4353 -1 0.705152
      vertex -34.7948 -1 1.06465
    endloop
  endfacet
  facet normal 0 0 0
    outer loop
      vertex -34.2045 -1 0.252153
      vertex -34.4353 1.5 0.705152
      vertex -34.2045 1.5 0.252153
    endloop
  endfacet
  facet normal 0 0 0
    outer loop
      vertex -34.4353 1.5 0.705152
      vertex -34.2045 -1 0.252153
      vertex -34.4353 -1 0.705152
    endloop
  endfacet
  facet normal 0 0 0
    outer loop
      vertex -35.2478 -1 1.29547
      vertex -34.7948 1.5 1.06465
      vertex -34.7948 -1 1.06465
    endloop
  endfacet
  facet normal 0 0 0
    outer loop
      vertex -34.7948 1.5 1.06465
      vertex -35.2478 -1 1.29547
      vertex -35.2478 1.5 1.29547
    endloop
  endfacet
  facet normal 0 0 0
    outer loop
      vertex -36.7052 -1 1.06465
      vertex -37.0647 1.5 0.705152
      vertex -36.7052 1.5 1.06465
    endloop
  endfacet
  facet normal 0 0 0
    outer loop
      vertex -37.0647 1.5 0.705152
      vertex -36.7052 -1 1.06465
      vertex -37.0647 -1 0.705152
    endloop
  endfacet
  facet normal 0 0 0
    outer loop
      vertex -37.0647 -1 0.705152
      vertex -37.2955 1.5 0.252153
      vertex -37.0647 1.5 0.705152
    endloop
  endfacet
  facet normal 0 0 0
    outer loop
      vertex -37.2955 1.5 0.252153
      vertex -37.0647 -1 0.705152
      vertex -37.2955 -1 0.252153
    endloop
  endfacet
  facet normal 0 0 0
    outer loop
      vertex -36.7052 -1 1.06465
      vertex -36.2522 1.5 1.29547
      vertex -36.2522 -1 1.29547
    endloop
  endfacet
  facet normal 0 0 0
    outer loop
      vertex -36.2522 1.5 1.29547
      vertex -36.7052 -1 1.06465
      vertex -36.7052 1.5 1.06465
    endloop
  endfacet
  facet normal 0 0 0
    outer loop
      vertex -34.4353 -1 -1.20515
      vertex -34.2045 1.5 -0.752152
      vertex -34.4353 1.5 -1.20515
    endloop
  endfacet
  facet normal 0 0 0
    outer loop
      vertex -34.2045 1.5 -0.752152
      vertex -34.4353 -1 -1.20515
      vertex -34.2045 -1 -0.752152
    endloop
  endfacet
  facet normal 0 0 0
    outer loop
      vertex -37.0647 -1 -1.20515
      vertex -36.7052 1.5 -1.56465
      vertex -37.0647 1.5 -1.20515
    endloop
  endfacet
  facet normal 0 0 0
    outer loop
      vertex -36.7052 1.5 -1.56465
      vertex -37.0647 -1 -1.20515
      vertex -36.7052 -1 -1.56465
    endloop
  endfacet
  facet normal 0 0 0
    outer loop
      vertex -37.375 -1 -0.25
      vertex -37.2955 1.5 -0.752152
      vertex -37.375 1.5 -0.25
    endloop
  endfacet
  facet normal 0 0 0
    outer loop
      vertex -37.2955 1.5 -0.752152
      vertex -37.375 -1 -0.25
      vertex -37.2955 -1 -0.752152
    endloop
  endfacet
  facet normal 0 0 0
    outer loop
      vertex -35.75 -1 1.375
      vertex -35.2478 1.5 1.29547
      vertex -35.2478 -1 1.29547
    endloop
  endfacet
  facet normal 0 0 0
    outer loop
      vertex -35.2478 1.5 1.29547
      vertex -35.75 -1 1.375
      vertex -35.75 1.5 1.375
    endloop
  endfacet
  facet normal 0 0 0
    outer loop
      vertex -34.2045 -1 -0.752152
      vertex -34.125 1.5 -0.25
      vertex -34.2045 1.5 -0.752152
    endloop
  endfacet
  facet normal 0 0 0
    outer loop
      vertex -34.125 1.5 -0.25
      vertex -34.2045 -1 -0.752152
      vertex -34.125 -1 -0.25
    endloop
  endfacet
  facet normal 0 0 0
    outer loop
      vertex -35.75 1.5 -1.875
      vertex -35.2478 -1 -1.79547
      vertex -35.2478 1.5 -1.79547
    endloop
  endfacet
  facet normal 0 0 0
    outer loop
      vertex -35.2478 -1 -1.79547
      vertex -35.75 1.5 -1.875
      vertex -35.75 -1 -1.875
    endloop
  endfacet
  facet normal 0 0 0
    outer loop
      vertex -34.7948 -1 -1.56465
      vertex -34.4353 1.5 -1.20515
      vertex -34.7948 1.5 -1.56465
    endloop
  endfacet
  facet normal 0 0 0
    outer loop
      vertex -34.4353 1.5 -1.20515
      vertex -34.7948 -1 -1.56465
      vertex -34.4353 -1 -1.20515
    endloop
  endfacet
  facet normal 0 0 0
    outer loop
      vertex -36.7052 1.5 -1.56465
      vertex -36.2522 -1 -1.79547
      vertex -36.2522 1.5 -1.79547
    endloop
  endfacet
  facet normal 0 0 0
    outer loop
      vertex -36.2522 -1 -1.79547
      vertex -36.7052 1.5 -1.56465
      vertex -36.7052 -1 -1.56465
    endloop
  endfacet
  facet normal 0 0 0
    outer loop
      vertex -37.2955 -1 -0.752152
      vertex -37.0647 1.5 -1.20515
      vertex -37.2955 1.5 -0.752152
    endloop
  endfacet
  facet normal 0 0 0
    outer loop
      vertex -37.0647 1.5 -1.20515
      vertex -37.2955 -1 -0.752152
      vertex -37.0647 -1 -1.20515
    endloop
  endfacet
  facet normal 0 0 0
    outer loop
      vertex -35.2478 1.5 -1.79547
      vertex -34.7948 -1 -1.56465
      vertex -34.7948 1.5 -1.56465
    endloop
  endfacet
  facet normal 0 0 0
    outer loop
      vertex -34.7948 -1 -1.56465
      vertex -35.2478 1.5 -1.79547
      vertex -35.2478 -1 -1.79547
    endloop
  endfacet
  facet normal 0 0 0
    outer loop
      vertex -36.2522 1.5 -1.79547
      vertex -35.75 -1 -1.875
      vertex -35.75 1.5 -1.875
    endloop
  endfacet
  facet normal 0 0 0
    outer loop
      vertex -35.75 -1 -1.875
      vertex -36.2522 1.5 -1.79547
      vertex -36.2522 -1 -1.79547
    endloop
  endfacet
  facet normal 0 0 0
    outer loop
      vertex 37.375 -1 -0.25
      vertex 37.2955 1.5 0.252153
      vertex 37.375 1.5 -0.25
    endloop
  endfacet
  facet normal 0 0 0
    outer loop
      vertex 37.2955 1.5 0.252153
      vertex 37.375 -1 -0.25
      vertex 37.2955 -1 0.252153
    endloop
  endfacet
  facet normal 0 0 0
    outer loop
      vertex 35.2478 -1 1.29547
      vertex 35.75 1.5 1.375
      vertex 35.75 -1 1.375
    endloop
  endfacet
  facet normal 0 0 0
    outer loop
      vertex 35.75 1.5 1.375
      vertex 35.2478 -1 1.29547
      vertex 35.2478 1.5 1.29547
    endloop
  endfacet
  facet normal 0 0 0
    outer loop
      vertex 35.75 1.5 -1.875
      vertex 36.2522 -1 -1.79547
      vertex 36.2522 1.5 -1.79547
    endloop
  endfacet
  facet normal 0 0 0
    outer loop
      vertex 36.2522 -1 -1.79547
      vertex 35.75 1.5 -1.875
      vertex 35.75 -1 -1.875
    endloop
  endfacet
  facet normal 0 0 0
    outer loop
      vertex 36.2522 1.5 -1.79547
      vertex 36.7052 -1 -1.56465
      vertex 36.7052 1.5 -1.56465
    endloop
  endfacet
  facet normal 0 0 0
    outer loop
      vertex 36.7052 -1 -1.56465
      vertex 36.2522 1.5 -1.79547
      vertex 36.2522 -1 -1.79547
    endloop
  endfacet
  facet normal 0 0 0
    outer loop
      vertex 37.0647 -1 0.705152
      vertex 36.7052 1.5 1.06465
      vertex 37.0647 1.5 0.705152
    endloop
  endfacet
  facet normal 0 0 0
    outer loop
      vertex 36.7052 1.5 1.06465
      vertex 37.0647 -1 0.705152
      vertex 36.7052 -1 1.06465
    endloop
  endfacet
  facet normal 0 0 0
    outer loop
      vertex 37.2955 -1 0.252153
      vertex 37.0647 1.5 0.705152
      vertex 37.2955 1.5 0.252153
    endloop
  endfacet
  facet normal 0 0 0
    outer loop
      vertex 37.0647 1.5 0.705152
      vertex 37.2955 -1 0.252153
      vertex 37.0647 -1 0.705152
    endloop
  endfacet
  facet normal 0 0 0
    outer loop
      vertex 36.2522 -1 1.29547
      vertex 36.7052 1.5 1.06465
      vertex 36.7052 -1 1.06465
    endloop
  endfacet
  facet normal 0 0 0
    outer loop
      vertex 36.7052 1.5 1.06465
      vertex 36.2522 -1 1.29547
      vertex 36.2522 1.5 1.29547
    endloop
  endfacet
  facet normal 0 0 0
    outer loop
      vertex 34.7948 -1 1.06465
      vertex 34.4353 1.5 0.705152
      vertex 34.7948 1.5 1.06465
    endloop
  endfacet
  facet normal 0 0 0
    outer loop
      vertex 34.4353 1.5 0.705152
      vertex 34.7948 -1 1.06465
      vertex 34.4353 -1 0.705152
    endloop
  endfacet
  facet normal 0 0 0
    outer loop
      vertex 34.4353 -1 0.705152
      vertex 34.2045 1.5 0.252153
      vertex 34.4353 1.5 0.705152
    endloop
  endfacet
  facet normal 0 0 0
    outer loop
      vertex 34.2045 1.5 0.252153
      vertex 34.4353 -1 0.705152
      vertex 34.2045 -1 0.252153
    endloop
  endfacet
  facet normal 0 0 0
    outer loop
      vertex 34.7948 -1 1.06465
      vertex 35.2478 1.5 1.29547
      vertex 35.2478 -1 1.29547
    endloop
  endfacet
  facet normal 0 0 0
    outer loop
      vertex 35.2478 1.5 1.29547
      vertex 34.7948 -1 1.06465
      vertex 34.7948 1.5 1.06465
    endloop
  endfacet
  facet normal 0 0 0
    outer loop
      vertex 35.75 -1 1.375
      vertex 36.2522 1.5 1.29547
      vertex 36.2522 -1 1.29547
    endloop
  endfacet
  facet normal 0 0 0
    outer loop
      vertex 36.2522 1.5 1.29547
      vertex 35.75 -1 1.375
      vertex 35.75 1.5 1.375
    endloop
  endfacet
  facet normal 0 0 0
    outer loop
      vertex 34.2045 -1 0.252153
      vertex 34.125 1.5 -0.25
      vertex 34.2045 1.5 0.252153
    endloop
  endfacet
  facet normal 0 0 0
    outer loop
      vertex 34.125 1.5 -0.25
      vertex 34.2045 -1 0.252153
      vertex 34.125 -1 -0.25
    endloop
  endfacet
  facet normal 0 0 0
    outer loop
      vertex 34.2045 -1 -0.752152
      vertex 34.4353 1.5 -1.20515
      vertex 34.2045 1.5 -0.752152
    endloop
  endfacet
  facet normal 0 0 0
    outer loop
      vertex 34.4353 1.5 -1.20515
      vertex 34.2045 -1 -0.752152
      vertex 34.4353 -1 -1.20515
    endloop
  endfacet
  facet normal 0 0 0
    outer loop
      vertex 36.7052 -1 -1.56465
      vertex 37.0647 1.5 -1.20515
      vertex 36.7052 1.5 -1.56465
    endloop
  endfacet
  facet normal 0 0 0
    outer loop
      vertex 37.0647 1.5 -1.20515
      vertex 36.7052 -1 -1.56465
      vertex 37.0647 -1 -1.20515
    endloop
  endfacet
  facet normal 0 0 0
    outer loop
      vertex 37.0647 -1 -1.20515
      vertex 37.2955 1.5 -0.752152
      vertex 37.0647 1.5 -1.20515
    endloop
  endfacet
  facet normal 0 0 0
    outer loop
      vertex 37.2955 1.5 -0.752152
      vertex 37.0647 -1 -1.20515
      vertex 37.2955 -1 -0.752152
    endloop
  endfacet
  facet normal 0 0 0
    outer loop
      vertex 34.125 -1 -0.25
      vertex 34.2045 1.5 -0.752152
      vertex 34.125 1.5 -0.25
    endloop
  endfacet
  facet normal 0 0 0
    outer loop
      vertex 34.2045 1.5 -0.752152
      vertex 34.125 -1 -0.25
      vertex 34.2045 -1 -0.752152
    endloop
  endfacet
  facet normal 0 0 0
    outer loop
      vertex 34.4353 -1 -1.20515
      vertex 34.7948 1.5 -1.56465
      vertex 34.4353 1.5 -1.20515
    endloop
  endfacet
  facet normal 0 0 0
    outer loop
      vertex 34.7948 1.5 -1.56465
      vertex 34.4353 -1 -1.20515
      vertex 34.7948 -1 -1.56465
    endloop
  endfacet
  facet normal 0 0 0
    outer loop
      vertex 37.2955 -1 -0.752152
      vertex 37.375 1.5 -0.25
      vertex 37.2955 1.5 -0.752152
    endloop
  endfacet
  facet normal 0 0 0
    outer loop
      vertex 37.375 1.5 -0.25
      vertex 37.2955 -1 -0.752152
      vertex 37.375 -1 -0.25
    endloop
  endfacet
  facet normal 0 0 0
    outer loop
      vertex 35.2478 1.5 -1.79547
      vertex 35.75 -1 -1.875
      vertex 35.75 1.5 -1.875
    endloop
  endfacet
  facet normal 0 0 0
    outer loop
      vertex 35.75 -1 -1.875
      vertex 35.2478 1.5 -1.79547
      vertex 35.2478 -1 -1.79547
    endloop
  endfacet
  facet normal 0 0 0
    outer loop
      vertex 34.7948 1.5 -1.56465
      vertex 35.2478 -1 -1.79547
      vertex 35.2478 1.5 -1.79547
    endloop
  endfacet
  facet normal 0 0 0
    outer loop
      vertex 35.2478 -1 -1.79547
      vertex 34.7948 1.5 -1.56465
      vertex 34.7948 -1 -1.56465
    endloop
  endfacet
  facet normal 0 0 0
    outer loop
      vertex -32.5 -1 -0.25
      vertex -33 -1.5 0.616026
      vertex -34.125 -1 2.56458
    endloop
  endfacet
  facet normal 0 0 0
    outer loop
      vertex -32.5 -5 -0.25
      vertex -33 -1.5 0.616026
      vertex -32.5 -1 -0.25
    endloop
  endfacet
  facet normal 0 0 0
    outer loop
      vertex -33 -1.5 0.616026
      vertex -32.5 -5 -0.25
      vertex -33 -5 0.616026
    endloop
  endfacet
  facet normal 0 0 0
    outer loop
      vertex -34.125 -1 2.56458
      vertex -33 -1.5 0.616026
      vertex -34.125 -1.5 2.56458
    endloop
  endfacet
  facet normal 0 0 0
    outer loop
      vertex -37.375 -1.5 2.56458
      vertex -39 -1 -0.25
      vertex -37.375 -1 2.56458
    endloop
  endfacet
  facet normal 0 0 0
    outer loop
      vertex -39 -1 -0.25
      vertex -37.375 -1.5 2.56458
      vertex -39 -1.5 -0.25
    endloop
  endfacet
  facet normal 0 0 0
    outer loop
      vertex -37.375 -1.5 2.56458
      vertex -34.125 -1 2.56458
      vertex -34.125 -1.5 2.56458
    endloop
  endfacet
  facet normal 0 0 0
    outer loop
      vertex -34.125 -1 2.56458
      vertex -37.375 -1.5 2.56458
      vertex -37.375 -1 2.56458
    endloop
  endfacet
  facet normal 0 0 0
    outer loop
      vertex -33 -5 0.616026
      vertex -32.5 -5 -0.25
      vertex -33 -5 -1.11603
    endloop
  endfacet
  facet normal 0 0 0
    outer loop
      vertex -39 -1.5 -0.25
      vertex -37.375 -1 -3.06458
      vertex -39 -1 -0.25
    endloop
  endfacet
  facet normal 0 0 0
    outer loop
      vertex -37.375 -1 -3.06458
      vertex -39 -1.5 -0.25
      vertex -37.375 -1.5 -3.06458
    endloop
  endfacet
  facet normal 0 0 0
    outer loop
      vertex -37.375 -1 2.56458
      vertex -35.75 -1 1.375
      vertex -34.125 -1 2.56458
    endloop
  endfacet
  facet normal 0 0 0
    outer loop
      vertex -37.375 -1 2.56458
      vertex -36.2522 -1 1.29547
      vertex -35.75 -1 1.375
    endloop
  endfacet
  facet normal 0 0 0
    outer loop
      vertex -37.375 -1 2.56458
      vertex -36.7052 -1 1.06465
      vertex -36.2522 -1 1.29547
    endloop
  endfacet
  facet normal 0 0 0
    outer loop
      vertex -37.375 -1 2.56458
      vertex -37.0647 -1 0.705152
      vertex -36.7052 -1 1.06465
    endloop
  endfacet
  facet normal 0 0 0
    outer loop
      vertex -39 -1 -0.25
      vertex -37.0647 -1 0.705152
      vertex -37.375 -1 2.56458
    endloop
  endfacet
  facet normal 0 0 0
    outer loop
      vertex -37.0647 -1 0.705152
      vertex -39 -1 -0.25
      vertex -37.2955 -1 0.252153
    endloop
  endfacet
  facet normal 0 0 0
    outer loop
      vertex -39 -1 -0.25
      vertex -37.375 -1 -0.25
      vertex -37.2955 -1 0.252153
    endloop
  endfacet
  facet normal 0 0 0
    outer loop
      vertex -39 -1 -0.25
      vertex -37.2955 -1 -0.752152
      vertex -37.375 -1 -0.25
    endloop
  endfacet
  facet normal 0 0 0
    outer loop
      vertex -39 -1 -0.25
      vertex -37.0647 -1 -1.20515
      vertex -37.2955 -1 -0.752152
    endloop
  endfacet
  facet normal 0 0 0
    outer loop
      vertex -37.375 -1 -3.06458
      vertex -37.0647 -1 -1.20515
      vertex -39 -1 -0.25
    endloop
  endfacet
  facet normal 0 0 0
    outer loop
      vertex -36.2522 -1 -1.79547
      vertex -37.375 -1 -3.06458
      vertex -35.75 -1 -1.875
    endloop
  endfacet
  facet normal 0 0 0
    outer loop
      vertex -36.7052 -1 -1.56465
      vertex -37.375 -1 -3.06458
      vertex -36.2522 -1 -1.79547
    endloop
  endfacet
  facet normal 0 0 0
    outer loop
      vertex -37.0647 -1 -1.20515
      vertex -37.375 -1 -3.06458
      vertex -36.7052 -1 -1.56465
    endloop
  endfacet
  facet normal 0 0 0
    outer loop
      vertex -35.2478 -1 1.29547
      vertex -34.125 -1 2.56458
      vertex -35.75 -1 1.375
    endloop
  endfacet
  facet normal 0 0 0
    outer loop
      vertex -34.7948 -1 1.06465
      vertex -34.125 -1 2.56458
      vertex -35.2478 -1 1.29547
    endloop
  endfacet
  facet normal 0 0 0
    outer loop
      vertex -34.4353 -1 0.705152
      vertex -34.125 -1 2.56458
      vertex -34.7948 -1 1.06465
    endloop
  endfacet
  facet normal 0 0 0
    outer loop
      vertex -32.5 -1 -0.25
      vertex -34.4353 -1 0.705152
      vertex -34.2045 -1 0.252153
    endloop
  endfacet
  facet normal 0 0 0
    outer loop
      vertex -32.5 -1 -0.25
      vertex -34.2045 -1 0.252153
      vertex -34.125 -1 -0.25
    endloop
  endfacet
  facet normal 0 0 0
    outer loop
      vertex -34.4353 -1 0.705152
      vertex -32.5 -1 -0.25
      vertex -34.125 -1 2.56458
    endloop
  endfacet
  facet normal 0 0 0
    outer loop
      vertex -34.2045 -1 -0.752152
      vertex -32.5 -1 -0.25
      vertex -34.125 -1 -0.25
    endloop
  endfacet
  facet normal 0 0 0
    outer loop
      vertex -34.4353 -1 -1.20515
      vertex -32.5 -1 -0.25
      vertex -34.2045 -1 -0.752152
    endloop
  endfacet
  facet normal 0 0 0
    outer loop
      vertex -34.125 -1 -3.06458
      vertex -34.4353 -1 -1.20515
      vertex -34.7948 -1 -1.56465
    endloop
  endfacet
  facet normal 0 0 0
    outer loop
      vertex -34.125 -1 -3.06458
      vertex -35.75 -1 -1.875
      vertex -37.375 -1 -3.06458
    endloop
  endfacet
  facet normal 0 0 0
    outer loop
      vertex -35.75 -1 -1.875
      vertex -34.125 -1 -3.06458
      vertex -35.2478 -1 -1.79547
    endloop
  endfacet
  facet normal 0 0 0
    outer loop
      vertex -35.2478 -1 -1.79547
      vertex -34.125 -1 -3.06458
      vertex -34.7948 -1 -1.56465
    endloop
  endfacet
  facet normal 0 0 0
    outer loop
      vertex -34.4353 -1 -1.20515
      vertex -34.125 -1 -3.06458
      vertex -32.5 -1 -0.25
    endloop
  endfacet
  facet normal 0 0 0
    outer loop
      vertex -37.375 -1 -3.06458
      vertex -34.125 -1.5 -3.06458
      vertex -34.125 -1 -3.06458
    endloop
  endfacet
  facet normal 0 0 0
    outer loop
      vertex -34.125 -1.5 -3.06458
      vertex -37.375 -1 -3.06458
      vertex -37.375 -1.5 -3.06458
    endloop
  endfacet
  facet normal 0 0 0
    outer loop
      vertex -33 -1.5 -1.11603
      vertex -34.125 -1 -3.06458
      vertex -34.125 -1.5 -3.06458
    endloop
  endfacet
  facet normal 0 0 0
    outer loop
      vertex -34.125 -1 -3.06458
      vertex -33 -1.5 -1.11603
      vertex -32.5 -1 -0.25
    endloop
  endfacet
  facet normal 0 0 0
    outer loop
      vertex -32.5 -5 -0.25
      vertex -33 -1.5 -1.11603
      vertex -33 -5 -1.11603
    endloop
  endfacet
  facet normal 0 0 0
    outer loop
      vertex -33 -1.5 -1.11603
      vertex -32.5 -5 -0.25
      vertex -32.5 -1 -0.25
    endloop
  endfacet
  facet normal 0 0 0
    outer loop
      vertex 39 -1.5 -0.25
      vertex 37.375 -1 2.56458
      vertex 39 -1 -0.25
    endloop
  endfacet
  facet normal 0 0 0
    outer loop
      vertex 37.375 -1 2.56458
      vertex 39 -1.5 -0.25
      vertex 37.375 -1.5 2.56458
    endloop
  endfacet
  facet normal 0 0 0
    outer loop
      vertex 33 -1.5 0.616026
      vertex 34.125 -1 2.56458
      vertex 34.125 -1.5 2.56458
    endloop
  endfacet
  facet normal 0 0 0
    outer loop
      vertex 34.125 -1 2.56458
      vertex 33 -1.5 0.616026
      vertex 32.5 -1 -0.25
    endloop
  endfacet
  facet normal 0 0 0
    outer loop
      vertex 32.5 -5 -0.25
      vertex 33 -1.5 0.616026
      vertex 33 -5 0.616026
    endloop
  endfacet
  facet normal 0 0 0
    outer loop
      vertex 33 -1.5 0.616026
      vertex 32.5 -5 -0.25
      vertex 32.5 -1 -0.25
    endloop
  endfacet
  facet normal 0 0 0
    outer loop
      vertex 34.125 -1.5 2.56458
      vertex 37.375 -1 2.56458
      vertex 37.375 -1.5 2.56458
    endloop
  endfacet
  facet normal 0 0 0
    outer loop
      vertex 37.375 -1 2.56458
      vertex 34.125 -1.5 2.56458
      vertex 34.125 -1 2.56458
    endloop
  endfacet
  facet normal 0 0 0
    outer loop
      vertex 32.5 -1 -0.25
      vertex 33 -1.5 -1.11603
      vertex 34.125 -1 -3.06458
    endloop
  endfacet
  facet normal 0 0 0
    outer loop
      vertex 32.5 -5 -0.25
      vertex 33 -1.5 -1.11603
      vertex 32.5 -1 -0.25
    endloop
  endfacet
  facet normal 0 0 0
    outer loop
      vertex 33 -1.5 -1.11603
      vertex 32.5 -5 -0.25
      vertex 33 -5 -1.11603
    endloop
  endfacet
  facet normal 0 0 0
    outer loop
      vertex 34.125 -1 -3.06458
      vertex 33 -1.5 -1.11603
      vertex 34.125 -1.5 -3.06458
    endloop
  endfacet
  facet normal 0 0 0
    outer loop
      vertex 33 -5 0.616026
      vertex 33 -5 -1.11603
      vertex 32.5 -5 -0.25
    endloop
  endfacet
  facet normal 0 0 0
    outer loop
      vertex 34.125 -1 2.56458
      vertex 35.75 -1 1.375
      vertex 37.375 -1 2.56458
    endloop
  endfacet
  facet normal 0 0 0
    outer loop
      vertex 34.125 -1 2.56458
      vertex 35.2478 -1 1.29547
      vertex 35.75 -1 1.375
    endloop
  endfacet
  facet normal 0 0 0
    outer loop
      vertex 34.125 -1 2.56458
      vertex 34.7948 -1 1.06465
      vertex 35.2478 -1 1.29547
    endloop
  endfacet
  facet normal 0 0 0
    outer loop
      vertex 34.125 -1 2.56458
      vertex 34.4353 -1 0.705152
      vertex 34.7948 -1 1.06465
    endloop
  endfacet
  facet normal 0 0 0
    outer loop
      vertex 32.5 -1 -0.25
      vertex 34.4353 -1 0.705152
      vertex 34.125 -1 2.56458
    endloop
  endfacet
  facet normal 0 0 0
    outer loop
      vertex 34.4353 -1 0.705152
      vertex 32.5 -1 -0.25
      vertex 34.2045 -1 0.252153
    endloop
  endfacet
  facet normal 0 0 0
    outer loop
      vertex 32.5 -1 -0.25
      vertex 34.125 -1 -0.25
      vertex 34.2045 -1 0.252153
    endloop
  endfacet
  facet normal 0 0 0
    outer loop
      vertex 32.5 -1 -0.25
      vertex 34.2045 -1 -0.752152
      vertex 34.125 -1 -0.25
    endloop
  endfacet
  facet normal 0 0 0
    outer loop
      vertex 32.5 -1 -0.25
      vertex 34.4353 -1 -1.20515
      vertex 34.2045 -1 -0.752152
    endloop
  endfacet
  facet normal 0 0 0
    outer loop
      vertex 34.125 -1 -3.06458
      vertex 34.4353 -1 -1.20515
      vertex 32.5 -1 -0.25
    endloop
  endfacet
  facet normal 0 0 0
    outer loop
      vertex 35.2478 -1 -1.79547
      vertex 34.125 -1 -3.06458
      vertex 35.75 -1 -1.875
    endloop
  endfacet
  facet normal 0 0 0
    outer loop
      vertex 34.7948 -1 -1.56465
      vertex 34.125 -1 -3.06458
      vertex 35.2478 -1 -1.79547
    endloop
  endfacet
  facet normal 0 0 0
    outer loop
      vertex 34.4353 -1 -1.20515
      vertex 34.125 -1 -3.06458
      vertex 34.7948 -1 -1.56465
    endloop
  endfacet
  facet normal 0 0 0
    outer loop
      vertex 36.2522 -1 1.29547
      vertex 37.375 -1 2.56458
      vertex 35.75 -1 1.375
    endloop
  endfacet
  facet normal 0 0 0
    outer loop
      vertex 36.7052 -1 1.06465
      vertex 37.375 -1 2.56458
      vertex 36.2522 -1 1.29547
    endloop
  endfacet
  facet normal 0 0 0
    outer loop
      vertex 37.0647 -1 0.705152
      vertex 37.375 -1 2.56458
      vertex 36.7052 -1 1.06465
    endloop
  endfacet
  facet normal 0 0 0
    outer loop
      vertex 39 -1 -0.25
      vertex 37.0647 -1 0.705152
      vertex 37.2955 -1 0.252153
    endloop
  endfacet
  facet normal 0 0 0
    outer loop
      vertex 39 -1 -0.25
      vertex 37.2955 -1 0.252153
      vertex 37.375 -1 -0.25
    endloop
  endfacet
  facet normal 0 0 0
    outer loop
      vertex 37.0647 -1 0.705152
      vertex 39 -1 -0.25
      vertex 37.375 -1 2.56458
    endloop
  endfacet
  facet normal 0 0 0
    outer loop
      vertex 37.2955 -1 -0.752152
      vertex 39 -1 -0.25
      vertex 37.375 -1 -0.25
    endloop
  endfacet
  facet normal 0 0 0
    outer loop
      vertex 37.0647 -1 -1.20515
      vertex 39 -1 -0.25
      vertex 37.2955 -1 -0.752152
    endloop
  endfacet
  facet normal 0 0 0
    outer loop
      vertex 37.375 -1 -3.06458
      vertex 37.0647 -1 -1.20515
      vertex 36.7052 -1 -1.56465
    endloop
  endfacet
  facet normal 0 0 0
    outer loop
      vertex 37.375 -1 -3.06458
      vertex 35.75 -1 -1.875
      vertex 34.125 -1 -3.06458
    endloop
  endfacet
  facet normal 0 0 0
    outer loop
      vertex 35.75 -1 -1.875
      vertex 37.375 -1 -3.06458
      vertex 36.2522 -1 -1.79547
    endloop
  endfacet
  facet normal 0 0 0
    outer loop
      vertex 36.2522 -1 -1.79547
      vertex 37.375 -1 -3.06458
      vertex 36.7052 -1 -1.56465
    endloop
  endfacet
  facet normal 0 0 0
    outer loop
      vertex 37.0647 -1 -1.20515
      vertex 37.375 -1 -3.06458
      vertex 39 -1 -0.25
    endloop
  endfacet
  facet normal 0 0 0
    outer loop
      vertex 34.125 -1 -3.06458
      vertex 37.375 -1.5 -3.06458
      vertex 37.375 -1 -3.06458
    endloop
  endfacet
  facet normal 0 0 0
    outer loop
      vertex 37.375 -1.5 -3.06458
      vertex 34.125 -1 -3.06458
      vertex 34.125 -1.5 -3.06458
    endloop
  endfacet
  facet normal 0 0 0
    outer loop
      vertex 37.375 -1.5 -3.06458
      vertex 39 -1 -0.25
      vertex 37.375 -1 -3.06458
    endloop
  endfacet
  facet normal 0 0 0
    outer loop
      vertex 39 -1 -0.25
      vertex 37.375 -1.5 -3.06458
      vertex 39 -1.5 -0.25
    endloop
  endfacet
  facet normal 0 0 0
    outer loop
      vertex 12.3607 1.5 -2.54226
      vertex 14.3347 -1.5 -1.84322
      vertex 14.3347 1.5 -1.84322
    endloop
  endfacet
  facet normal 0 0 0
    outer loop
      vertex 14.3347 -1.5 -1.84322
      vertex 12.3607 1.5 -2.54226
      vertex 12.3607 -1.5 -2.54226
    endloop
  endfacet
  facet normal 0 0 0
    outer loop
      vertex -6.25738 1.5 -4.00753
      vertex -4.18114 -1.5 -4.28088
      vertex -4.18114 1.5 -4.28088
    endloop
  endfacet
  facet normal 0 0 0
    outer loop
      vertex -4.18114 -1.5 -4.28088
      vertex -6.25738 1.5 -4.00753
      vertex -6.25738 -1.5 -4.00753
    endloop
  endfacet
  facet normal 0 0 0
    outer loop
      vertex -25.1728 1.5 4.41416
      vertex -23.5114 -1.5 3.13932
      vertex -23.5114 1.5 3.13932
    endloop
  endfacet
  facet normal 0 0 0
    outer loop
      vertex -23.5114 -1.5 3.13932
      vertex -25.1728 1.5 4.41416
      vertex -25.1728 -1.5 4.41416
    endloop
  endfacet
  facet normal 0 0 0
    outer loop
      vertex 20 1.5 0.858984
      vertex 21.7856 -1.5 1.95318
      vertex 21.7856 1.5 1.95318
    endloop
  endfacet
  facet normal 0 0 0
    outer loop
      vertex 21.7856 -1.5 1.95318
      vertex 20 1.5 0.858984
      vertex 20 -1.5 0.858984
    endloop
  endfacet
  facet normal 0 0 0
    outer loop
      vertex 0 1.5 -4.5
      vertex -1.27192e-14 -1.5 -4.5
      vertex 0 -3 -4.5
    endloop
  endfacet
  facet normal 0 0 0
    outer loop
      vertex -2.09344 1.5 -4.44518
      vertex -1.27192e-14 -1.5 -4.5
      vertex 0 1.5 -4.5
    endloop
  endfacet
  facet normal 0 0 0
    outer loop
      vertex -1.27192e-14 -1.5 -4.5
      vertex -2.09344 1.5 -4.44518
      vertex -2.09344 -1.5 -4.44518
    endloop
  endfacet
  facet normal 0 0 0
    outer loop
      vertex -10.3528 1.5 -3.13703
      vertex -8.31647 -1.5 -3.6259
      vertex -8.31647 1.5 -3.6259
    endloop
  endfacet
  facet normal 0 0 0
    outer loop
      vertex -8.31647 -1.5 -3.6259
      vertex -10.3528 1.5 -3.13703
      vertex -10.3528 -1.5 -3.13703
    endloop
  endfacet
  facet normal 0 0 0
    outer loop
      vertex -16.2695 1.5 -1.04182
      vertex -14.3347 -1.5 -1.84322
      vertex -14.3347 1.5 -1.84322
    endloop
  endfacet
  facet normal 0 0 0
    outer loop
      vertex -14.3347 -1.5 -1.84322
      vertex -16.2695 1.5 -1.04182
      vertex -16.2695 -1.5 -1.04182
    endloop
  endfacet
  facet normal 0 0 0
    outer loop
      vertex 4.18114 1.5 -4.28088
      vertex 6.25738 -1.5 -4.00753
      vertex 6.25738 1.5 -4.00753
    endloop
  endfacet
  facet normal 0 0 0
    outer loop
      vertex 6.25738 -1.5 -4.00753
      vertex 4.18114 1.5 -4.28088
      vertex 4.18114 -1.5 -4.28088
    endloop
  endfacet
  facet normal 0 0 0
    outer loop
      vertex 2.09344 1.5 -4.44518
      vertex 1.27192e-14 -1.5 -4.5
      vertex 2.09344 -1.5 -4.44518
    endloop
  endfacet
  facet normal 0 0 0
    outer loop
      vertex 0 1.5 -4.5
      vertex 1.27192e-14 -1.5 -4.5
      vertex 2.09344 1.5 -4.44518
    endloop
  endfacet
  facet normal 0 0 0
    outer loop
      vertex 1.27192e-14 -1.5 -4.5
      vertex 0 1.5 -4.5
      vertex 0 -3 -4.5
    endloop
  endfacet
  facet normal 0 0 0
    outer loop
      vertex 2.09344 1.5 -4.44518
      vertex 4.18114 -1.5 -4.28088
      vertex 4.18114 1.5 -4.28088
    endloop
  endfacet
  facet normal 0 0 0
    outer loop
      vertex 4.18114 -1.5 -4.28088
      vertex 2.09344 1.5 -4.44518
      vertex 2.09344 -1.5 -4.44518
    endloop
  endfacet
  facet normal 0 0 0
    outer loop
      vertex 6.25738 1.5 -4.00753
      vertex 8.31647 -1.5 -3.6259
      vertex 8.31647 1.5 -3.6259
    endloop
  endfacet
  facet normal 0 0 0
    outer loop
      vertex 8.31647 -1.5 -3.6259
      vertex 6.25738 1.5 -4.00753
      vertex 6.25738 -1.5 -4.00753
    endloop
  endfacet
  facet normal 0 0 0
    outer loop
      vertex 10.3528 1.5 -3.13703
      vertex 12.3607 -1.5 -2.54226
      vertex 12.3607 1.5 -2.54226
    endloop
  endfacet
  facet normal 0 0 0
    outer loop
      vertex 12.3607 -1.5 -2.54226
      vertex 10.3528 1.5 -3.13703
      vertex 10.3528 -1.5 -3.13703
    endloop
  endfacet
  facet normal 0 0 0
    outer loop
      vertex 21.7856 1.5 1.95318
      vertex 23.5114 -1.5 3.13932
      vertex 23.5114 1.5 3.13932
    endloop
  endfacet
  facet normal 0 0 0
    outer loop
      vertex 23.5114 -1.5 3.13932
      vertex 21.7856 1.5 1.95318
      vertex 21.7856 -1.5 1.95318
    endloop
  endfacet
  facet normal 0 0 0
    outer loop
      vertex 23.5114 1.5 3.13932
      vertex 25.1728 -1.5 4.41416
      vertex 25.1728 1.5 4.41416
    endloop
  endfacet
  facet normal 0 0 0
    outer loop
      vertex 25.1728 -1.5 4.41416
      vertex 23.5114 1.5 3.13932
      vertex 23.5114 -1.5 3.13932
    endloop
  endfacet
  facet normal 0 0 0
    outer loop
      vertex 25.1728 1.5 4.41416
      vertex 26.7652 -1.5 5.77421
      vertex 26.7652 1.5 5.77421
    endloop
  endfacet
  facet normal 0 0 0
    outer loop
      vertex 26.7652 -1.5 5.77421
      vertex 25.1728 1.5 4.41416
      vertex 25.1728 -1.5 4.41416
    endloop
  endfacet
  facet normal 0 0 0
    outer loop
      vertex 14.3347 1.5 -1.84322
      vertex 16.2695 -1.5 -1.04182
      vertex 16.2695 1.5 -1.04182
    endloop
  endfacet
  facet normal 0 0 0
    outer loop
      vertex 16.2695 -1.5 -1.04182
      vertex 14.3347 1.5 -1.84322
      vertex 14.3347 -1.5 -1.84322
    endloop
  endfacet
  facet normal 0 0 0
    outer loop
      vertex 18.1596 1.5 -0.140261
      vertex 20 -1.5 0.858984
      vertex 20 1.5 0.858984
    endloop
  endfacet
  facet normal 0 0 0
    outer loop
      vertex 20 -1.5 0.858984
      vertex 18.1596 1.5 -0.140261
      vertex 18.1596 -1.5 -0.140261
    endloop
  endfacet
  facet normal 0 0 0
    outer loop
      vertex -14.3347 1.5 -1.84322
      vertex -12.3607 -1.5 -2.54226
      vertex -12.3607 1.5 -2.54226
    endloop
  endfacet
  facet normal 0 0 0
    outer loop
      vertex -12.3607 -1.5 -2.54226
      vertex -14.3347 1.5 -1.84322
      vertex -14.3347 -1.5 -1.84322
    endloop
  endfacet
  facet normal 0 0 0
    outer loop
      vertex -4.18114 1.5 -4.28088
      vertex -2.09344 -1.5 -4.44518
      vertex -2.09344 1.5 -4.44518
    endloop
  endfacet
  facet normal 0 0 0
    outer loop
      vertex -2.09344 -1.5 -4.44518
      vertex -4.18114 1.5 -4.28088
      vertex -4.18114 -1.5 -4.28088
    endloop
  endfacet
  facet normal 0 0 0
    outer loop
      vertex -12.3607 1.5 -2.54226
      vertex -10.3528 -1.5 -3.13703
      vertex -10.3528 1.5 -3.13703
    endloop
  endfacet
  facet normal 0 0 0
    outer loop
      vertex -10.3528 -1.5 -3.13703
      vertex -12.3607 1.5 -2.54226
      vertex -12.3607 -1.5 -2.54226
    endloop
  endfacet
  facet normal 0 0 0
    outer loop
      vertex -20 1.5 0.858984
      vertex -18.1596 -1.5 -0.140261
      vertex -18.1596 1.5 -0.140261
    endloop
  endfacet
  facet normal 0 0 0
    outer loop
      vertex -18.1596 -1.5 -0.140261
      vertex -20 1.5 0.858984
      vertex -20 -1.5 0.858984
    endloop
  endfacet
  facet normal 0 0 0
    outer loop
      vertex -21.7856 1.5 1.95318
      vertex -20 -1.5 0.858984
      vertex -20 1.5 0.858984
    endloop
  endfacet
  facet normal 0 0 0
    outer loop
      vertex -20 -1.5 0.858984
      vertex -21.7856 1.5 1.95318
      vertex -21.7856 -1.5 1.95318
    endloop
  endfacet
  facet normal 0 0 0
    outer loop
      vertex -18.1596 1.5 -0.140261
      vertex -16.2695 -1.5 -1.04182
      vertex -16.2695 1.5 -1.04182
    endloop
  endfacet
  facet normal 0 0 0
    outer loop
      vertex -16.2695 -1.5 -1.04182
      vertex -18.1596 1.5 -0.140261
      vertex -18.1596 -1.5 -0.140261
    endloop
  endfacet
  facet normal 0 0 0
    outer loop
      vertex -27.0032 1.5 6
      vertex -26.7652 -1.5 5.77421
      vertex -26.7652 1.5 5.77421
    endloop
  endfacet
  facet normal 0 0 0
    outer loop
      vertex -26.7652 -1.5 5.77421
      vertex -27.0032 1.5 6
      vertex -27.0032 -1.5 6
    endloop
  endfacet
  facet normal 0 0 0
    outer loop
      vertex -23.5114 1.5 3.13932
      vertex -21.7856 -1.5 1.95318
      vertex -21.7856 1.5 1.95318
    endloop
  endfacet
  facet normal 0 0 0
    outer loop
      vertex -21.7856 -1.5 1.95318
      vertex -23.5114 1.5 3.13932
      vertex -23.5114 -1.5 3.13932
    endloop
  endfacet
  facet normal 0 0 0
    outer loop
      vertex -26.7652 1.5 5.77421
      vertex -25.1728 -1.5 4.41416
      vertex -25.1728 1.5 4.41416
    endloop
  endfacet
  facet normal 0 0 0
    outer loop
      vertex -25.1728 -1.5 4.41416
      vertex -26.7652 1.5 5.77421
      vertex -26.7652 -1.5 5.77421
    endloop
  endfacet
  facet normal 0 0 0
    outer loop
      vertex 8.31647 1.5 -3.6259
      vertex 10.3528 -1.5 -3.13703
      vertex 10.3528 1.5 -3.13703
    endloop
  endfacet
  facet normal 0 0 0
    outer loop
      vertex 10.3528 -1.5 -3.13703
      vertex 8.31647 1.5 -3.6259
      vertex 8.31647 -1.5 -3.6259
    endloop
  endfacet
  facet normal 0 0 0
    outer loop
      vertex 26.7652 1.5 5.77421
      vertex 27.0032 -1.5 6
      vertex 27.0032 1.5 6
    endloop
  endfacet
  facet normal 0 0 0
    outer loop
      vertex 27.0032 -1.5 6
      vertex 26.7652 1.5 5.77421
      vertex 26.7652 -1.5 5.77421
    endloop
  endfacet
  facet normal 0 0 0
    outer loop
      vertex 16.2695 1.5 -1.04182
      vertex 18.1596 -1.5 -0.140261
      vertex 18.1596 1.5 -0.140261
    endloop
  endfacet
  facet normal 0 0 0
    outer loop
      vertex 18.1596 -1.5 -0.140261
      vertex 16.2695 1.5 -1.04182
      vertex 16.2695 -1.5 -1.04182
    endloop
  endfacet
  facet normal 0 0 0
    outer loop
      vertex -8.31647 1.5 -3.6259
      vertex -6.25738 -1.5 -4.00753
      vertex -6.25738 1.5 -4.00753
    endloop
  endfacet
  facet normal 0 0 0
    outer loop
      vertex -6.25738 -1.5 -4.00753
      vertex -8.31647 1.5 -3.6259
      vertex -8.31647 -1.5 -3.6259
    endloop
  endfacet
endsolid OpenSCAD_Model
